{
    "SquadType": {
        "Main": "STRIKER",
        "Support": "SPECIAL"
    },
    "BulletType": {
        "Explosion": "폭발",
        "Pierce": "관통",
        "Mystic": "신비",
        "Normal": "일반",
        "Siege": "공성"
    },
    "ArmorType": {
        "LightArmor": "경장갑",
        "HeavyArmor": "중장갑",
        "Unarmed": "특수장갑",
        "Normal": "일반장갑"
    },
    "TacticRole": {
        "DamageDealer": "딜러",
        "Tanker": "탱커",
        "Healer": "힐러",
        "Supporter": "서포터",
        "Vehicle": "T.S"
    },
    "School": {
        "Abydos": "아비도스",
        "Arius": "아리우스",
        "Gehenna": "게헨나",
        "Hyakkiyako": "백귀야행",
        "Millennium": "밀레니엄",
        "RedWinter": "붉은겨울",
        "Shanhaijing": "산해경",
        "SRT": "SRT",
        "Trinity": "트리니티",
        "Valkyrie": "발키리",
        "ETC": "그 외"
    },
    "AdaptationType": {
        "Street": "시가지",
        "Outdoor": "야외",
        "Indoor": "실내"
    },
    "SchoolLong": {
        "Abydos": "아비도스 고등학교",
        "Arius": "아리우스 분교",
        "Gehenna": "게헨나 학원",
        "Hyakkiyako": "백귀야행 연합학원",
        "Millennium": "밀레니엄 사이언스 스쿨",
        "RedWinter": "붉은겨울 연방학원",
        "Shanhaijing": "산해경 고급중학교",
        "SRT": "SRT 특수학원",
        "Trinity": "트리니티 종합학원",
        "Valkyrie": "발키리 경찰학교",
        "ETC": "그 외"
    },
    "Club": {
        "Kohshinjo68": "흥신소 68",
        "Justice": "정의실현부",
        "CleanNClearing": "Cleaning&Clearing",
        "BookClub": "도서부",
        "Countermeasure": "대책위원회",
        "Engineer": "엔지니어부",
        "FoodService": "급양부",
        "Fuuki": "선도부",
        "GourmetClub": "미식연구회",
        "HoukagoDessert": "방과후 디저트부",
        "KnightsHospitaller": "구호기사단",
        "MatsuriOffice": "마츠리운영관리부",
        "Meihuayuan": "매화원",
        "Onmyobu": "음양부",
        "RemedialClass": "보충수업부",
        "SPTF": "초현상특무부",
        "Shugyobu": "수행부",
        "Endanbou": "연단방",
        "TheSeminar": "세미나",
        "TrainingClub": "트레이닝부",
        "TrinityVigilance": "트리니티 자경단",
        "Veritas": "베리타스",
        "NinpoKenkyubu": "인법연구부",
        "GameDev": "게임개발부",
        "RedwinterSecretary": "붉은겨울 사무국",
        "anzenkyoku": "생활안전국",
        "SisterHood": "시스터후드",
        "Class227": "227호 특별반",
        "Emergentology": "응급의학부",
        "RabbitPlatoon": "RABBIT 소대",
        "PandemoniumSociety": "판데모니움 소사이어티",
        "AriusSqud": "아리우스 스쿼드",
        "EmptyClub": "없음"
    },
    "BossFaction": {
        "Decagrammaton": "데카그라마톤",
        "Slumpia": "슬럼피아",
        "CommunioSanctorum": "콤뮤니오 상토룸",
        "Kaitenger": "카이텐져",
        "TheLibraryofLore": "The Library of Lore"
    },
    "Stat": {
        "Level": "레벨",
        "MaxHP": "최대 체력",
        "AttackPower": "공격력",
        "DefensePower": "방어력",
        "HealPower": "치유력",
        "AccuracyPoint": "명중 수치",
        "DodgePoint": "회피 수치",
        "CriticalPoint": "치명 수치",
        "CriticalDamageRate": "치명 대미지",
        "HealEffectivenessRate": "받는 회복 효과 강화율",
        "OppressionPower": "군중 제어 강화력",
        "OppressionResist": "군중 제어 저항력",
        "CriticalChanceResistPoint": "치명 저항력",
        "CriticalDamageResistRate": "치명 대미지 저항률",
        "StabilityPoint": "안정 수치",
        "Range": "사거리",
        "AmmoCount": "장탄 수",
        "MoveSpeed": "이동속도",
        "DamagedRatio": "받는 대미지량",
        "AttackSpeed": "공격속도",
        "BlockRate": "엄폐 성공률",
        "DefensePenetration": "방어관통",
        "RegenCost": "코스트 회복력",
        "SightPoint": "시야",
        "EnhanceExplosionRate": "폭발 특효",
        "EnhancePierceRate": "관통 특효",
        "EnhanceMysticRate": "신비 특효",
        "ExtendBuffDuration": "이로운 효과 유지력",
        "ExtendDebuffDuration": "해로운 효과 유지력",
        "ExtendCrowdControlDuration": "군중제어 유지력",
        "SkillCost": "Ex 스킬 코스트",
        "EXHits": "EX Skill Hits"
    },
    "IsLimited": {
        "1": "특별",
        "2": "이벤트"
    },
    "FurnitureSet": {
        "100": "모모프렌즈 카페 세트",
        "101": "젤리즈 오락실 세트",
        "102": "발렌타인 세트",
        "103": "여름 리조트 풀파티 세트",
        "104": "할로윈 펌킨 카페 세트",
        "105": "전통 온천장 세트",
        "106": "새해 하우스 세트",
        "107": "밀리터리 캠핑장 세트",
        "108": "비치사이드 세트",
        "109": "대운동회 세트"
    },
    "ItemCategory": {
        "Furnitures": "가구",
        "Decorations": "장식",
        "Interiors": "내장",
        "Wallpaper": "벽지",
        "Floor": "바닥",
        "Background": "배경",
        "Table": "테이블",
        "Chair": "의자",
        "Closet": "옷장",
        "FloorDecoration": "바닥장식",
        "WallDecoration": "벽장식",
        "Prop": "소품",
        "HomeAppliance": "가전",
        "FurnitureEtc": "기타",
        "Bed": "침대",
        "Material": "재료",
        "SecretStone": "엘레프",
        "Favor": "선물",
        "CharacterExpGrowth": "Character EXP",
        "Coin": "재화",
        "Equipment": "장비",
        "Currency": "재화",
        "Consumable": "소모품",
        "Collectible": "수집품",
        "Exp": "강화석",
        "WeaponExpGrowth": "무기 부품",
        "WeaponExpGrowthA": "스프링",
        "WeaponExpGrowthB": "해머",
        "WeaponExpGrowthC": "총열",
        "WeaponExpGrowthZ": "공이",
        "Box": "아이템 박스",
        "Hat": "모자",
        "Gloves": "장갑",
        "Shoes": "신발",
        "Bag": "가방",
        "Badge": "배지",
        "Hairpin": "헤어핀",
        "Charm": "부적",
        "Necklace": "목걸이",
        "Watch": "손목시계",
        "Artifact": "오파츠를"
    },
    "EnemyTags": {
        "EnemySmall": "소형",
        "EnemyMedium": "중형",
        "EnemyLarge": "대형",
        "EnemyXLarge": "초대형"
    },
    "EventName": {
        "701": "특수 작전 데카그라마톤 편",
        "801": "벚꽃만발 축제대소동!",
        "802": "혁명의 이반 쿠팔라",
        "803": "여름 하늘의 위시리스트",
        "804": "히나 선도부장님의 여름방학!",
        "805": "네버랜드에서의 술래잡기",
        "806": "선상의 바니 체이서",
        "808": "227호 온천장 운영일지!",
        "809": "신춘광상곡 제68번",
        "810": "샬레의 해피♡발렌타인 순찰",
        "811": "코사카 와카모의 침묵과 축연",
        "812": "덜렁대는 수녀님과 고서관의 마술사",
        "813": "불인의 마음",
        "814": "아비도스 리조트 복구 대책위원회",
        "815": "출장! 백야당 바다의 집 프랜차이즈 계획",
        "816": "방과 후 디저트 이야기 ~달콤한 비밀과 총격전~",
        "817": "On your mark ＠ millennium",
        "818": "Get set, go! ~키보토스 황륜대제~"
    },
    "StageType": {
        "Campaign": "임무",
        "Bounty": "현상수배",
        "WeekDungeon": "특별의뢰",
        "SchoolDungeon": "학원교류회",
        "Event": "이벤트",
        "Raid": "총력전",
        "TimeAttack": "종합전술시험",
        "WorldRaid": "연합 작전",
        "ChaserA": "현상수배 - 고가 도로",
        "ChaserB": "현상수배 - 사막 기찻길",
        "ChaserC": "현상수배 - 교실",
        "Blood": "거점 방어",
        "FindGift": "물건 회수",
        "SchoolA": "학원교류회 - 트리니티",
        "SchoolB": "학원교류회 - 게헨나",
        "SchoolC": "학원교류회 - 밀레니엄",
        "Conquest": "점령전"
    },
    "TimeAttackStage": {
        "Shooting": "사격 시험",
        "Defense": "방어 시험",
        "Destruction": "돌파 시험"
    },
    "ConquestMap": {
        "815": "<로스트 파라다이스 리조트> 군도"
    },
    "StageTitle": {
        "ChaserA": "고가 도로 {0}",
        "ChaserB": "버려진 기차 {0}",
        "ChaserC": "습격 받은 교실 {0}",
        "Blood": "폐허의 군수공장 {0}",
        "FindGift": "슬럼피아 광장 {0}",
        "SchoolA": "트리니티 {0}",
        "SchoolB": "게헨나 {0}",
        "SchoolC": "밀레니엄 {0}"
    },
    "EnemyRank": {
        "Champion": "Boss",
        "Elite": "Elite",
        "Minion": "Minion",
        "Summoned": "Summon"
    },
    "NodeQuality": {
        "1": "노멀",
        "2": "레어"
    },
    "NodeTier": {
        "1": "1차 노드",
        "2": "2차 노드",
        "3": "3차 노드"
    },
    "WeaponPartExpBonus": {
        "WeaponExpGrowthA": "Provides 1.5&times; EXP when used to enhance SMG, SG and HG type weapons.",
        "WeaponExpGrowthB": "Provides 1.5&times; EXP when used to enhance AR, GL and RL type weapons.",
        "WeaponExpGrowthC": "Provides 1.5&times; EXP when used to enhance MG, SR, MT and RG type weapons.",
        "WeaponExpGrowthZ": "Provides 1.5&times; EXP when used to enhance any type of weapon."
    },
    "BuffType": {
        "Buff": "버프",
        "Debuff": "디버프",
        "CC": "군중제어 효과에",
        "Special": "Status Effect"
    },
    "BuffName": {
        "Buff_AmmoCount": "장탄 수",
        "Buff_ATK": "공격력",
        "Buff_AttackSpeed": "공격속도",
        "Buff_BlockRate": "엄폐 성공률",
        "Buff_ConcentratedTarget": "집중공격",
        "Buff_CostChange": "Ex 스킬 코스트",
        "Buff_CostRegen": "코스트 회복력",
        "Buff_CriticalChance": "치명 수치",
        "Buff_CriticalChanceResistPoint": "치명 저항력",
        "Buff_CriticalDamage": "치명 대미지",
        "Buff_CriticalDamageRateResist": "치명 대미지 저항률",
        "Buff_DamagedLimit": "Incoming DMG Limit",
        "Buff_DamagedRatio": "받는 대미지량",
        "Buff_DEF": "방어력",
        "Buff_Dodge": "회피 수치",
        "Buff_DotHeal": "지속 회복",
        "Buff_EnhanceExplosionRate": "폭발 특효",
        "Buff_EnhancePierceRate": "관통 특효",
        "Buff_EnhanceMysticRate": "신비 특효",
        "Buff_ExtendBuffDuration": "이로운 효과 유지력",
        "Buff_ExtendDebuffDuration": "해로운 효과 유지력",
        "Buff_ExtendCrowdControlDuration": "군중제어 유지력",
        "Buff_HealByHit_Damaged": "피격 시 치유력의",
        "Buff_HealEffectiveness": "받는 회복효과 강화율",
        "Buff_HealPower": "치유력",
        "Buff_HIT": "명중 수치",
        "Buff_MAXHP": "최대 체력",
        "Buff_MoveSpeed": "이동속도",
        "Buff_OppressionPower": "군중제어 강화력",
        "Buff_OppressionResist": "군중제어 저항력",
        "Buff_Penetration": "방어관통 수치",
        "Buff_Range": "사거리",
        "Buff_Shield": "보호막",
        "Buff_Stability": "안정 수치",
        "Debuff_AmmoCount": "장탄 수",
        "Debuff_ATK": "공격력",
        "Debuff_AttackSpeed": "공격속도",
        "Debuff_BlockRate": "엄폐 성공률",
        "Debuff_Burn": "화상",
        "Debuff_Cheerleading": "응원의 열기",
        "Debuff_Chill": "오한",
        "Debuff_ConcentratedTarget": "집중공격",
        "Debuff_CostChange": "Ex 스킬 코스트",
        "Debuff_CriticalChance": "치명 수치",
        "Debuff_CriticalChanceResistPoint": "치명 저항력",
        "Debuff_CriticalDamage": "치명 대미지",
        "Debuff_CriticalDamageRateResist": "치명 대미지 저항률",
        "Debuff_DamageByHit_Damaged": "약점 파악",
        "Debuff_DamagedRatio": "받는 대미지량",
        "Debuff_DEF": "방어력",
        "Debuff_Dodge": "회피 수치",
        "Debuff_EnhanceExplosionRate": "폭발 특효",
        "Debuff_EnhancePierceRate": "관통 특효",
        "Debuff_EnhanceMysticRate": "신비 특효",
        "Debuff_HealedLimit": "Recovery Limit",
        "Debuff_HealEffectiveness": "받는 회복효과 강화율",
        "Debuff_HealPower": "치유력",
        "Debuff_Hieronymus": "저주",
        "Debuff_HIT": "명중 수치",
        "Debuff_MAXHP": "최대 체력",
        "Debuff_MoveSpeed": "이동속도",
        "Debuff_OppressionPower": "군중제어 강화력",
        "Debuff_OppressionResist": "군중제어 저항력",
        "Debuff_Penetration": "방어관통 수치",
        "Debuff_Poison": "중독",
        "Debuff_Range": "사거리",
        "Debuff_Stability": "안정 수치",
        "Debuff_CostRegen": "코스트 회복력",
        "CC_Fear": "공포",
        "CC_Stunned": "기절",
        "CC_Provoke": "도발",
        "CC_Paralysis": "Paralysis",
        "Special_EnergyBatteryHalf": "에너지",
        "Special_FormChange": "일반공격",
        "Special_Immortal": "불사",
        "Special_ImmuneDamage": "Invulnerable",
        "Special_Fury": "분노",
        "Special_Misdeed": "악행",
        "Special_LittleDevil": "소악마",
        "Special_Accumulation": "축적한",
        "Special_CostRegenBan": "Recovery Stop",
        "Special_ImmuneCC": "CC Immune",
        "Special_SuddenDeath": "와카모의 각인이",
        "Special_Stamp": "칭찬 도장"
    },
    "BuffNameLong": {
        "Buff_AmmoCount": "Mag Count Up",
        "Buff_ATK": "ATK Up",
        "Buff_AttackSpeed": "ATK SPD Up",
        "Buff_BlockRate": "Block Rate Up",
        "Buff_ConcentratedTarget": "Focused Assault",
        "Buff_CostChange": "EX Cost Down",
        "Buff_CostRegen": "Cost Recovery Up",
        "Buff_CriticalChance": "Crit Up",
        "Buff_CriticalChanceResistPoint": "Crit RES Up",
        "Buff_CriticalDamage": "Crit DMG Up",
        "Buff_CriticalDamageRateResist": "Crit DMG RES Up",
        "Buff_DamagedLimit": "Incoming DMG Limit",
        "Buff_DamagedRatio": "Incoming Damage Down",
        "Buff_DEF": "DEF Up",
        "Buff_Dodge": "Evasion Up",
        "Buff_DotHeal": "HP Regeneration",
        "Buff_EnhanceExplosionRate": "Explosive Effectiveness Up",
        "Buff_EnhancePierceRate": "Piercing Effectiveness Up",
        "Buff_EnhanceMysticRate": "Mystic Effectiveness Up",
        "Buff_ExtendBuffDuration": "이로운 효과 유지력",
        "Buff_ExtendDebuffDuration": "해로운 효과 유지력",
        "Buff_ExtendCrowdControlDuration": "군중제어 유지력",
        "Buff_HealByHit_Damaged": "Heal When Hit",
        "Buff_HealEffectiveness": "Recovery Boost Up",
        "Buff_HealPower": "Healing Up",
        "Buff_HIT": "Accuracy Up",
        "Buff_MAXHP": "Max HP Up",
        "Buff_MoveSpeed": "MOV SPD Up",
        "Buff_OppressionPower": "CC Power Up",
        "Buff_OppressionResist": "CC RES Up",
        "Buff_Penetration": "Defense Piercing Up",
        "Buff_Range": "Range Up",
        "Buff_Shield": "Barrier",
        "Buff_Stability": "Stability Up",
        "Debuff_AmmoCount": "Mag Count Down",
        "Debuff_ATK": "ATK Down",
        "Debuff_AttackSpeed": "ATK SPD Down",
        "Debuff_BlockRate": "Block Rate Down",
        "Debuff_Burn": "Burn",
        "Debuff_Cheerleading": "응원의 열기",
        "Debuff_Chill": "Chill",
        "Debuff_ConcentratedTarget": "Focused Assault",
        "Debuff_CostChange": "EX Cost Up",
        "Debuff_CriticalChance": "Crit Down",
        "Debuff_CriticalChanceResistPoint": "Crit RES Down",
        "Debuff_CriticalDamage": "Crit DMG Down",
        "Debuff_CriticalDamageRateResist": "Crit DMG RES Down",
        "Debuff_DamageByHit_Damaged": "Weakness Detection",
        "Debuff_DamagedRatio": "Incoming Damage Up",
        "Debuff_DEF": "DEF Down",
        "Debuff_Dodge": "Evasion Down",
        "Debuff_EnhanceExplosionRate": "Explosive Effectiveness Down",
        "Debuff_EnhancePierceRate": "Piercing Effectiveness Down",
        "Debuff_EnhanceMysticRate": "Mystic Effectiveness Down",
        "Debuff_HealedLimit": "Recovery Limit",
        "Debuff_HealEffectiveness": "Recovery Boost Down",
        "Debuff_HealPower": "Healing Down",
        "Debuff_Hieronymus": "Curse",
        "Debuff_HIT": "Accuracy Down",
        "Debuff_MAXHP": "Max HP Down",
        "Debuff_MoveSpeed": "MOV SPD Down",
        "Debuff_OppressionPower": "CC Power Down",
        "Debuff_OppressionResist": "CC RES Down",
        "Debuff_Penetration": "Defense Piercing Down",
        "Debuff_Poison": "Poison",
        "Debuff_Range": "Range Down",
        "Debuff_Stability": "Stability Down",
        "Debuff_CostRegen": "Cost Recovery Down",
        "CC_Fear": "Fear",
        "CC_Stunned": "Stun",
        "CC_Provoke": "Taunt",
        "CC_Paralysis": "Paralysis",
        "Special_EnergyBatteryHalf": "Energy Charge",
        "Special_FormChange": "Form Change",
        "Special_Immortal": "Immortal",
        "Special_ImmuneDamage": "Invulnerable",
        "Special_Fury": "Enraged",
        "Special_Misdeed": "Evil Deeds",
        "Special_LittleDevil": "Imps",
        "Special_Accumulation": "DMG Accumulation",
        "Special_CostRegenBan": "Cost Recovery Stop",
        "Special_ImmuneCC": "CC Immunity",
        "Special_SuddenDeath": "와카모의 각인이",
        "Special_Stamp": "칭찬 도장"
    },
    "BuffTooltip": {
        "Buff_AmmoCount": "Increases the maximum amount of weapon ammunition used by Normal Attacks.",
        "Buff_ATK": "Increases the amount of damage dealt by attacks.",
        "Buff_AttackSpeed": "Increases the speed of Normal Attacks and reloads, and reduces attack delay.",
        "Buff_BlockRate": "Increases the chance of successfully blocking attacks when taking cover.",
        "Buff_ConcentratedTarget": "Becomes the priority target of enemies' attacks.",
        "Buff_CostChange": "Reduces the amount of skill cost required for using the EX Skill.",
        "Buff_CostRegen": "Increases the rate at which skill cost is recovered.",
        "Buff_CriticalChance": "Increases the chance of landing a critical hit when attacking.",
        "Buff_CriticalChanceResistPoint": "Decerases the chance of receiving a critical hit when being attacked.",
        "Buff_CriticalDamage": "Increases the damage dealt by critical hits.",
        "Buff_CriticalDamageRateResist": "Decreases the damage received from critical hits.",
        "Buff_DamagedLimit": "Limits the amount of damage received from attacks.",
        "Buff_DamagedRatio": "Decreases all incoming damage by a percentage amount.",
        "Buff_DEF": "Decreases the damage received from attacks.",
        "Buff_Dodge": "Increases the chance of successfully evading attacks.",
        "Buff_DotHeal": "Continuously restores HP at set intervals.",
        "Buff_EnhanceExplosionRate": "Increases the damage bonus when dealing Explosive type attacks against Light Armor targets.",
        "Buff_EnhancePierceRate": "Increases the damage bonus when dealing Piercing type attacks against Heavy Armor targets.",
        "Buff_EnhanceMysticRate": "Increases the damage bonus when dealing Mystic type attacks against Special Armor targets.",
        "Buff_ExtendBuffDuration": "Increases the duration of buffs granted to self and allies.",
        "Buff_ExtendDebuffDuration": "Increases the duration of debuffs inflicted on enemies.",
        "Buff_ExtendCrowdControlDuration": "Increases the duration of Crowd Control effects inflicted on enemies.",
        "Buff_HealByHit_Damaged": "Restores HP each time damage is taken from an attack.",
        "Buff_HealEffectiveness": "Increases the amount of HP restored from healing abilities that target this character.",
        "Buff_HealPower": "Increases the amount of HP restored by healing abilities, and damage absorbed by barrier abilities.",
        "Buff_HIT": "Decreases the chance of missing when attacking.",
        "Buff_MAXHP": "Increases maximum HP.",
        "Buff_MoveSpeed": "Increases movement speed.",
        "Buff_OppressionPower": "Increases the chance of successfully inflicting Crowd Control effects.",
        "Buff_OppressionResist": "Decreases the chance of being inflicting with Crowd Control effects.",
        "Buff_Penetration": "Increases the amount of enemy defense that will be ignored by attacks.",
        "Buff_Range": "Increases the distance from which Normal Attacks can be performed.",
        "Buff_Shield": "Absorbs a set amount of damage.",
        "Buff_Stability": "Increases the minimum damage dealt by attacks due to random damage variance.",
        "Debuff_AmmoCount": "Decreases the maximum amount of weapon ammunition used by Normal Attacks.",
        "Debuff_ATK": "Decreases the amount of damage dealt by attacks.",
        "Debuff_AttackSpeed": "Decreases the speed of Normal Attacks and reloads, and increases attack delay.",
        "Debuff_BlockRate": "Decreases the chance of successfully blocking attacks when taking cover.",
        "Debuff_Burn": "Continuously receives Burn damage at set intervals. This damage cannot critically hit.",
        "Debuff_Cheerleading": "Continuously receives damage at set intervals. This damage cannot critically hit.",
        "Debuff_Chill": "Continuously receives Chill damage at set intervals. This damage cannot critically hit.",
        "Debuff_ConcentratedTarget": "Becomes the priority target of enemies' attacks.",
        "Debuff_CostChange": "Increases the amount of skill cost required for using the EX Skill.",
        "Debuff_CostRegen": "Decreases the rate at which skill cost is recovered.",
        "Debuff_CriticalChance": "Decreases the chance of landing a critical hit when attacking.",
        "Debuff_CriticalChanceResistPoint": "Increases the chance of receiving a critical hit when being attacked.",
        "Debuff_CriticalDamage": "Decreases the damage dealt by critical hits.",
        "Debuff_CriticalDamageRateResist": "Increases the damage received from critical hits.",
        "Debuff_DamageByHit_Damaged": "Receives additional damage when being attacked.",
        "Debuff_DamagedRatio": "Increases all incoming damage by a percentage amount.",
        "Debuff_DEF": "Increases the damage received from attacks.",
        "Debuff_Dodge": "Decreases the chance of successfully evading attacks.",
        "Debuff_EnhanceExplosionRate": "Decreases the damage bonus when dealing Explosive type attacks against Light Armor targets.",
        "Debuff_EnhancePierceRate": "Decreases the damage bonus when dealing Piercing type attacks against Heavy Armor targets.",
        "Debuff_EnhanceMysticRate": "Decreases the damage bonus when dealing Mystic type attacks against Special Armor targets.",
        "Debuff_HealedLimit": "Limits the amount of HP healing abilities will restore.",
        "Debuff_HealEffectiveness": "Decreases the amount of HP restored from healing abilities that target this character.",
        "Debuff_HealPower": "Decreases the amount of HP restored by healing abilities, and damage absorbed by barrier abilities.",
        "Debuff_Hieronymus": "Inflicts continuous damage over time. Inflicts a large amount of damage in a circular area around the target if this debuff is not removed before it expires. This debuff can only be removed by healing the afflicted to 100% HP.",
        "Debuff_HIT": "Increases the chance of missing when attacking.",
        "Debuff_MAXHP": "Decreases maximum HP.",
        "Debuff_MoveSpeed": "Decreases movement speed.",
        "Debuff_OppressionPower": "Decreases the chance of successfully inflicting Crowd Control effects.",
        "Debuff_OppressionResist": "Increases the chance of being inflicting with Crowd Control effects.",
        "Debuff_Penetration": "Decreases the amount of enemy defense that will be ignored by attacks.",
        "Debuff_Poison": "Continuously receives poison damage at set intervals. This damage cannot critically hit.",
        "Debuff_Range": "Decreases the distance from which Normal Attacks can be performed.",
        "Debuff_Stability": "Decreases the minimum damage dealt by attacks due to random damage variance.",
        "CC_Fear": "Unable to act and will slowly move away from whoever inflicted fear on them. Also interrupts any active skills.",
        "CC_Stunned": "Unable to act and interrupts any active skills.",
        "CC_Provoke": "Forced to attack whoever inflicted taunt on them. Also interrupts any active skills.",
        "CC_Paralysis": "Unable to act and interrupts any active skills.",
        "Special_EnergyBatteryHalf": "Increases the effectiveness of Aris's EX and Sub skills by 1.5&times; (half) or 2&times; (full).\nCharge level resets to empty after EX skill use.",
        "Special_FormChange": "Augments Normal Attacks.",
        "Special_Immortal": "Able to survive lethal damage with 1 HP for the duration of the effect.",
        "Special_ImmuneDamage": "Immune to some or all types of incoming damage.",
        "Special_Fury": "Increases the damage dealt by Neru's EX Skill.",
        "Special_Misdeed": "Decreases DEF with each stack held and generates skill cost when Aru (New Year) uses her EX Skill.",
        "Special_LittleDevil": "Increases Crit DMG with each stack held and increases the damage dealt by Mutuski (New Year)'s Basic Skill when at 6 stacks.",
        "Special_Accumulation": "All damage dealt to this target for the duration of the effect will be accumulated and dealt again as an additional hit once this expires.",
        "Special_CostRegenBan": "Cost Recovery is reduced to 0.",
        "Special_ImmuneCC": "Immune to all Crowd Control effects.",
        "Special_SuddenDeath": "A stack of 5 will deal lethal damage to the character.",
        "Special_Stamp": "Reduces allies' EX skill cost and restores own HP when Kokona reaches 5 stacks."
    },
    "ServerName": {
        "0": "Japan",
        "1": "Global"
    },
    "ShopCategory": {
        "General": "일반",
        "Raid": "총력전",
        "SecretStone": "엘리그마I",
        "SecretStoneGrowth": "엘리그마II",
        "Arena": "전술 대회",
        "TimeAttack": "종합전술시험",
        "MasterCoin": "숙련 증서",
        "Chaser": "현상수배 상점"
    },
    "ui": {
        "navbar_home": "홈페이지",
        "navbar_students": "학생",
        "student": "학생",
        "navbar_stages": "스테이지",
        "navbar_raids": "총력전",
        "navbar_craft": "제조",
        "synthesis": "물질 생성",
        "fusion": "물질 합성",
        "shops": "상점",
        "item_sources": "획득 장소",
        "navbar_items": "아이템",
        "navbar_settings_server": "서버",
        "navbar_settings_language": "언어",
        "navbar_settings_language_description": "Depending on the server selected, some content may not be translated.",
        "navbar_settings_theme": "Theme",
        "navbar_settings_theme_description": "Auto will use your device theme.",
        "navbar_settings_contrast": "High Contrast",
        "navbar_settings_contrast_description": "Disables blur and transparency effects.<br>May also improve performance.",
        "navbar_settings_collection": "Manage Collection Data",
        "navbar_settings_collection_description": "Import or export your student collection data.",
        "navbar_settings_custombuffs": "Enable Custom Buffs",
        "navbar_settings_custombuffs_description": "(Experimental) Allows for setting custom buff values on student's stat display options screen.",
        "search": "검색",
        "filter_by_name": "Filter by name",
        "collection_export_collection": "Export Collection",
        "collection_import_collection": "Import Collection",
        "collection_import_warning": "This will overwrite your current collection",
        "collection_export_placeholder": "Click export to generate an export string from your collection",
        "collection_import_placeholder": "Paste export string here and click Import",
        "collection_export": "Export",
        "collection_import": "Import",
        "collection_import_planner": "Import from Resource Planner",
        "setting_off": "OFF",
        "setting_on": "ON",
        "setting_open": "Open",
        "current_events": "Current Events ({0} Server)",
        "home_timezone": "All dates are converted to your local timezone.",
        "event_starts": "Starts in <b>{0} days, {1} hours and {2} minutes</b>.",
        "event_ends": "Ends in <b>{0} days, {1} hours and {2} minutes</b>.",
        "student_birthdays": "The following students are celebrating their birthday this week!",
        "attributes": "스탯 정보",
        "skills": "스킬",
        "ex_weapon": "고유 무기",
        "ex_gear": "애용품",
        "profile": "프로필",
        "student_gear_short": "장비",
        "student_bond_short": "인연랭크",
        "student_weapon": "고유 무기",
        "student_gear": "장비",
        "student_ex_gear": "애용품",
        "student_bond": "인연랭크",
        "student_bond_alt": "인연랭크",
        "tooltip_supportstats": "보조 능력치",
        "tooltip_vehiclestats": "Vehicle/Summon Stats",
        "tooltip_import_planner": "Imports collection from Justin163's Resource Planner (justin163.com/planner)",
        "student_skill_ex": "EX 스킬",
        "add_own": "Add Own/Selected Specials",
        "buff_transferable": "Other Buffs",
        "buff_transferable_search": "Search for Student or Skill Name",
        "buff_transferable_conflict": "Some of the selected buffs' effects conflict with each other. Only the first effect will be applied.",
        "buff_transferable_incompatible": "Some of the selected buffs cannot be applied to the current character.",
        "buff_custom": "Custom Buffs",
        "buff_custom_base": "Add as base amount",
        "buff_custom_coefficient": "Add as percentage amount",
        "supportstats_search": "Search for Special Student",
        "student_skill_normal": "기본 스킬",
        "student_skill_gearnormal": "기본 스킬+",
        "student_skill_passive": "강화 스킬",
        "student_skill_sub": "서브 스킬",
        "student_skills_materials": "재료 리스트",
        "student_skills_materials_none": "No materials required.",
        "student_weapon_rank_2star_desc": "Exclusive Weapon Max Level Lv.30 → <b>Lv.40</b> / Upgrades Enhanced Skill",
        "student_weapon_rank_3star_desc": "Exclusive Weapon Max Level Lv.40 → <b>Lv.50</b> / Upgrades Terrain Strength",
        "student_gear_t2_desc": "Unlocks Basic Skill+",
        "attack_type_desc": "Deals <b>2&times;</b> damage to {0} armor targets.<br>Deals <b>0.5&times;</b> damage to {1} armor targets.<br>Deals <b>0.5&times;</b> damage to <b>Structures</b>.",
        "attack_type_normal_desc": "Deals <b>1&times;</b> damage to <b class='ba-col-explosion'>Light</b>, <b class='ba-col-pierce'>Heavy</b> and <b class='ba-col-mystic'>Special</b> armor targets.<br>Deals <b>0.5&times;</b> damage to <b class='ba-col-siege'>Structures</b>.",
        "defense_type_desc": "Receives <b>2&times;</b> damage from {0} attacks.<br>Receives <b>0.5&times;</b> damage from {1} attacks.",
        "defense_type_normal_desc": "Receives <b>1&times;</b> damage from <b class='ba-col-explosion'>Explosive</b>, <b class='ba-col-pierce'>Piercing</b> and <b class='ba-col-mystic'>Mystic</b> attacks.",
        "comfort": "쾌적도",
        "age": "나이",
        "birthday": "생일",
        "hobbies": "취미",
        "height": "키",
        "cv": "보이스",
        "designer": "디자인",
        "illustrator": "일러스트",
        "bond_title": "인연 랭크 보너스",
        "weaponbonus_title": "한계 해방",
        "favoritem_title": "선물",
        "favoritem_none": "This student does not have any favourite gifts.",
        "furniture_title": "상호작용",
        "furniture_none": "This student does not interact with any cafe furniture.",
        "student_list": "학생 리스트",
        "filters": "필터",
        "student_search_filters_clear": "Clear all Filters",
        "student_search_info": "Show all Info",
        "sortby": "정렬",
        "default": "기본값",
        "stat": "능력치",
        "name": "이름",
        "type": "전술 역할",
        "role": "역할",
        "rarity": "희귀도",
        "attacktype": "공격타입",
        "defensetype": "방어타입",
        "school": "학원",
        "weapon": "무기종류",
        "position": "포지션",
        "category": "구분",
        "combat_power": "지형전투력",
        "memory_lobby": "메모리얼 로비",
        "memory_lobby_student": "{0}의 메모리얼 로비",
        "memory_lobby_unlock": "Unlocks after reaching relationship rank {0} with {1}",
        "terrain_adaption": "{0} 전투력",
        "terrain_adaption_details": "Deals <b>{0}&times;</b> damage in <b>{1}</b> terrain.\nBlock rate when taking cover <b>+{2}%</b>.\nChance to ignore block when attacking <b>+{2}%</b>",
        "statpreview_title": "Stat Display Options",
        "buffs": "버프",
        "summon": "Summon",
        "summon_inheritance": "Inherits {0} of {1}'s {2}",
        "stability_mindamage": "Minimum Damage: {0}",
        "stat_info": "스탯 정보",
        "rec_level": "추천",
        "stage_rewards": "획득 가능 보상",
        "rewards_none": "No rewards.",
        "rewards_findgift_msg": "Each enemy defeated will drop one of the following items:",
        "stage_enemies": "적 정보",
        "stage_info": "정보",
        "stage_map": "맵",
        "event_rerun": " (Rerun)",
        "starcondition_clear": "클리어",
        "starcondition_cleartime": "<b>{0}</b>초 이내 클리어",
        "starcondition_earnrewards": "보상{0}개 획득",
        "starcondition_defeatall": "모든 적을 격파한다.",
        "starcondition_defeatalltime": "{0}초 안에 모든 적을 격파한다.",
        "starcondition_allsurvive": "전원 생존한다.",
        "starcondition_complete": "임무 완료",
        "starcondition_clearturns": "{0}턴 내 스테이지 클리어",
        "starcondition_sranks": "S랭크 {0}회 획득",
        "no_results": "No results.",
        "furniture_set": "세트",
        "others": "Other",
        "options": "옵션",
        "options_short": "옵션",
        "raid_rules": "규칙",
        "ta_phase": "단계",
        "craft_rewards": "Possible Items",
        "craft_fusion": "물질 합성",
        "craft_recipe_items": "Required Items",
        "craft_using": "Crafted using the following items",
        "craft_toggle_chance": "Show Node Appearance Rates",
        "bond_req_equip": "Requires <i class='ms-1 fa-solid fa-heart'></i> {0} with {1} to equip",
        "bond_req_upgrade": "Requires <i class='ms-1 fa-solid fa-heart'></i> {0} with {1} to upgrade",
        "gacha_pickup": "픽업 모집",
        "skill_plus": "+",
        "stage_reward_default": "보상",
        "stage_reward_firstclear": "초회",
        "stage_reward_threestar": "3★",
        "rewards_season": "시즌 보상",
        "raid_season": "시즌 {0} ({1})",
        "raid_season_select": "Select Season",
        "item_tab_materials": "재료",
        "item_tab_gifts": "선물",
        "item_tab_eleph": "엘레프",
        "item_tab_currency": "재화",
        "item_tab_furniture": "가구",
        "item_tab_equipment": "장비",
        "list_style_detailed": "Detailed View",
        "list_style_compact": "Compact View",
        "equipment_tier": "장비 티어",
        "furniture_interaction_list": "The following students interact with this furniture",
        "item_likedbystudent_list_0": "Loved {0} by the following students",
        "item_likedbystudent_list_1": "Liked {0} by the following students",
        "item_usedby_gear": "Used to improve the following students' favorite item",
        "item_specialgift": "This gift will be treated as a liked item {0} when given to any student",
        "item_usedby": "Used by the following students",
        "item_usedby_skill": "Used to improve the following students' skills",
        "item_usedby_eleph": "Used to unlock mystic in the following student",
        "item_obtainedfrom_stage": "Obtained from the following stages",
        "item_purchasedfrom": "Purchased from the following shops",
        "item_randombox_tier": "Random {0} {1}",
        "item_artifact_box": "Contains one of the following artifacts:",
        "item_equipment_box": "Contains one of the following equipment pieces:",
        "conquest_area": "{0} 지역",
        "tooltip_relationship_bonus": "Include {0}'s Relationship Bonus",
        "tooltip_relationship_bonus_alt": "Include Alt Relationship Bonus",
        "tooltip_equipment_bonus": "Include Equipment Bonus",
        "tooltip_passiveskill_bonus": "Include Enhanced Skill Buff",
        "tooltip_buffs_bonus": "Include {0} Selected Buffs",
        "tooltip_compare": "Compare with Student",
        "tooltip_compare_remove": "Remove Comparison",
        "tooltip_collection_add": "Add to Collection\n<small>(Saves selected stats)</small>",
        "tooltip_collection_remove": "Remove from Collection",
        "tooltip_sprite_toggle": "Change Sprite",
        "collection": "Collection",
        "collection_owned": "Owned",
        "collection_notowned": "Not Owned",
        "maptile_spawn": "Spawn Tile",
        "maptile_drone": "Drone (Reveals surrounding tiles)",
        "maptile_remove": "Remove Tile",
        "maptile_teleport_oneway_entrance": "One-way Teleporter Entrance",
        "maptile_teleport_oneway_exit": "One-way Teleporter Exit",
        "maptile_teleport_twoway": "Two-way Teleporter",
        "maptile_item_food": "Food Pickup\n(Heals unit for 50% of their Max HP)",
        "maptile_item_atk": "Gun Pickup\n(Increases unit's ATK by 10% for the next two turns)",
        "maptile_item_def": "Armor Pickup\n(Increases unit's DEF by 10% for the next two turns)",
        "maptile_switch_down": "Lowered Switch Tile",
        "maptile_switch_up": "Raised Switch Tile",
        "maptile_switch_target_down": "Lowered Tile",
        "maptile_switch_target_up": "Raised Tile",
        "maptile_enemy_default_msg": "Click on an enemy unit on the map to view a list of enemies.",
        "toast_import_success": "Successfully imported student collection",
        "toast_import_failure": "Error importing student collection",
        "toast_import_copy": "Copied import string to clipboard",
        "toast_amount_invalid": "Invalid amount entered",
        "stat_defense_tooltip": "DMG Reduction: {0}",
        "stat_crit_tooltip": "Crit Chance:",
        "stat_crit_amount_tooltip": "{0}&nbsp;<small><i>({1} Crit RES)</i></small>",
        "stat_stability_tooltip": "Minimum DMG: {0}",
        "stat_ammocount_tooltip": "Normal Attack consumes {0} ammo and deals {1} hit(s)",
        "stat_ammocount_tooltip_area": "Normal Attack consumes {0} ammo and deals {1} hit(s) to enemies in a circular area",
        "stat_ammocount_tooltip_line": "Normal Attack consumes {0} ammo and deals {1} hit(s) to enemies in a straight line",
        "skill_hits_tooltip": "Deals a total of {0} hit(s)",
        "home_welcome": "Welcome, Sensei!",
        "home_introduction": "Schale DB is an unofficial database for the mobile game <i class=\"text-bold\">Blue Archive</i> developed by Nexon Games and published by Yostar (Japan) and Nexon (Global) for iOS and Android.",
        "home_change_server": "Please select your game server using the settings menu <i class=\"fa-solid fa-gear mx-1\"></i> to see only information that has been released on that server.",
        "home_features": "Features",
        "home_translations_help": "Schale DB is currently available in 6 languages. Want to help translate? Please get in touch via Discord (lonqie#2708) or check out the <a class=\"text-emphasis\" href=\"https://github.com/lonqie/SchaleDB-Localization\">localization project</a>!",
        "home_features_list": "<li>Full information on all students and skills, including summons or vehicles.</li><li>Comprehensive stats calculation that can display a student's stats under any configuration of stars, level, equipment, and buffs from skills.</li><li>Complete Items, Equipment and Furniture database.</li><li>Reward drops, maps and detailed enemy information for all Campaign, Event Quest, Challenge and Daily stages.</li><li>Stats and Skill information for Total Assault bosses and Joint Firing Drill events.</li><li>View the chances of possible items received from crafting nodes.</li>",
        "home_footer_text": "Schale DB is developed and maintained by lonqie, with additional translation work by Blue-Roar & TKRotund.\nSchale DB is not affiliated with Nexon, Nexon Games or Yostar. All game artwork, information and assets used in this database are the property and copyright of the respective authors.",
        "changelog": "Changelog"
    }
}