{
    "SquadType": {
        "Main": "STRIKER",
        "Support": "SPECIAL"
    },
    "BulletType": {
        "Explosion": "爆发",
        "Pierce": "贯穿",
        "Mystic": "神秘",
        "Normal": "普通",
        "Siege": "Siege"
    },
    "ArmorType": {
        "LightArmor": "轻装甲",
        "HeavyArmor": "重装甲",
        "Unarmed": "特殊装甲",
        "Normal": "普通装甲"
    },
    "TacticRole": {
        "DamageDealer": "输出",
        "Tanker": "坦克",
        "Healer": "治疗",
        "Supporter": "辅助",
        "Vehicle": "特殊支援"
    },
    "School": {
        "Abydos": "阿拜多斯",
        "Arius": "奧利斯",
        "Gehenna": "格黑娜",
        "Hyakkiyako": "百鬼夜行",
        "Millennium": "千年",
        "RedWinter": "赤冬",
        "Shanhaijing": "山海经",
        "SRT": "SRT",
        "Trinity": "三一",
        "Valkyrie": "瓦尔基里",
        "ETC": "其他"
    },
    "AdaptationType": {
        "Street": "市区",
        "Outdoor": "野外",
        "Indoor": "室内"
    },
    "SchoolLong": {
        "Abydos": "阿拜多斯高中",
        "Arius": "阿里乌斯分校",
        "Gehenna": "格黑娜学园",
        "Hyakkiyako": "百鬼夜行联合学园",
        "Millennium": "千年科学学园",
        "RedWinter": "赤冬联邦学园",
        "Shanhaijing": "山海经高级中学",
        "SRT": "SRT 特殊学园",
        "Trinity": "三一综合学园",
        "Valkyrie": "瓦尔基里警察学校",
        "ETC": "其他"
    },
    "Club": {
        "Kohshinjo68": "征信社 68",
        "Justice": "实现正义部",
        "CleanNClearing": "C&C",
        "BookClub": "图书部",
        "Countermeasure": "对策委员会",
        "Engineer": "工程师部",
        "FoodService": "供给部",
        "Fuuki": "纠察部",
        "GourmetClub": "美食研究会",
        "HoukagoDessert": "放学后的甜点部",
        "KnightsHospitaller": "救援骑士团",
        "MatsuriOffice": "节庆营运管理部",
        "Meihuayuan": "梅花园",
        "Onmyobu": "阴阳部",
        "RemedialClass": "补课部",
        "SPTF": "超现象特务部",
        "Shugyobu": "修行部",
        "Endanbou": "锻炼屋",
        "TheSeminar": "研讨会",
        "TrainingClub": "训练部",
        "TrinityVigilance": "三一自卫队",
        "Veritas": "贝里塔斯",
        "NinpoKenkyubu": "忍法研究部",
        "GameDev": "游戏开发部",
        "RedwinterSecretary": "赤冬事务局",
        "anzenkyoku": "生活安全局",
        "SisterHood": "修女会",
        "Class227": "227特别班",
        "Emergentology": "救急医学部",
        "RabbitPlatoon": "RABBIT小队",
        "PandemoniumSociety": "万魔殿学会",
        "AriusSqud": "阿里乌斯小队",
        "EmptyClub": "无"
    },
    "BossFaction": {
        "Decagrammaton": "十字神",
        "Slumpia": "史林皮亚",
        "CommunioSanctorum": "Communio Sanctorum",
        "Kaitenger": "凯坦泽",
        "TheLibraryofLore": "The Library of Lore"
    },
    "Stat": {
        "Level": "等级",
        "MaxHP": "生命值",
        "AttackPower": "攻击力",
        "DefensePower": "防御力",
        "HealPower": "治愈力",
        "AccuracyPoint": "命中率",
        "DodgePoint": "回避率",
        "CriticalPoint": "暴击率",
        "CriticalDamageRate": "暴击伤害",
        "HealEffectivenessRate": "回复强化率",
        "OppressionPower": "群控强化力",
        "OppressionResist": "群控抵抗力",
        "CriticalChanceResistPoint": "暴击抵抗力",
        "CriticalDamageResistRate": "暴击伤害抵抗率",
        "StabilityPoint": "稳定性",
        "Range": "射程",
        "AmmoCount": "载弹量",
        "MoveSpeed": "移速",
        "DamagedRatio": "承受伤害量",
        "AttackSpeed": "攻速",
        "BlockRate": "掩护成功率",
        "DefensePenetration": "防御贯穿",
        "RegenCost": "COST回复力",
        "SightPoint": "视野",
        "EnhanceExplosionRate": "爆发伤害加成",
        "EnhancePierceRate": "贯穿伤害加成",
        "EnhanceMysticRate": "神秘伤害加成",
        "ExtendBuffDuration": "Buff Duration",
        "ExtendDebuffDuration": "Debuff Duration",
        "ExtendCrowdControlDuration": "群控状态持续力",
        "SkillCost": "EX 技能费用",
        "EXHits": "EX Skill Hits"
    },
    "IsLimited": {
        "1": "限定",
        "2": "活动"
    },
    "FurnitureSet": {
        "100": "Momo好友咖啡厅组合",
        "101": "果冻娱乐室组合",
        "102": "情人节组合",
        "103": "避暑胜地泳池派对组合",
        "104": "万圣节南瓜咖啡厅组合",
        "105": "传统温泉浴场组合",
        "106": "正月居家组合",
        "107": "军事露营区组合",
        "108": "海滨组合",
        "109": "运动会组合"
    },
    "ItemCategory": {
        "Furnitures": "家具",
        "Decorations": "装饰",
        "Interiors": "室内装潢",
        "Wallpaper": "壁纸",
        "Floor": "地板",
        "Background": "背景",
        "Table": "桌子",
        "Chair": "椅子",
        "Closet": "衣柜",
        "FloorDecoration": "地板装饰",
        "WallDecoration": "墙饰",
        "Prop": "小道具",
        "HomeAppliance": "家电",
        "FurnitureEtc": "其他",
        "Bed": "床具",
        "Material": "材料",
        "SecretStone": "神名文字",
        "Favor": "礼物",
        "CharacterExpGrowth": "角色经验",
        "Coin": "货币",
        "Equipment": "装备",
        "Currency": "货币",
        "Consumable": "消耗品",
        "Collectible": "收藏品",
        "Exp": "强化石",
        "WeaponExpGrowth": "武器零件",
        "WeaponExpGrowthA": "弹簧",
        "WeaponExpGrowthB": "击锤",
        "WeaponExpGrowthC": "枪管",
        "WeaponExpGrowthZ": "撞针",
        "Box": "道具箱",
        "Hat": "帽子",
        "Gloves": "手套",
        "Shoes": "鞋子",
        "Bag": "背包",
        "Badge": "徽章",
        "Hairpin": "发卡",
        "Charm": "符咒",
        "Necklace": "项链",
        "Watch": "手表",
        "Artifact": "欧帕兹"
    },
    "EnemyTags": {
        "EnemySmall": "小型",
        "EnemyMedium": "中型",
        "EnemyLarge": "大型",
        "EnemyXLarge": "超大型"
    },
    "EventName": {
        "701": "特殊作战·十字神名篇",
        "801": "樱花盛开庆典大骚动！",
        "802": "革命的伊凡·库帕拉",
        "803": "夏日天空的愿望清单",
        "804": "阳奈纠察部长的暑假！",
        "805": "梦幻岛的捉迷藏",
        "806": "船上的兔子追逐者",
        "808": "227号温泉浴场营运日志！",
        "809": "新春狂想曲第68号",
        "810": "夏莱的快乐♡情人节巡逻",
        "811": "狐坂若藻的沉默与祝宴",
        "812": "冒失的修女与古书馆的魔术师",
        "813": "不忍之心",
        "814": "阿拜多斯避暑复旧对策委员会",
        "815": "出差！百夜堂 海之家FC计划",
        "816": "放学后甜点故事 甜香的秘密与枪战",
        "817": "On Your Mark @ Millennium",
        "818": "Get Set, Go! ~ 基沃托斯大运动会 晄轮大祭"
    },
    "StageType": {
        "Campaign": "任务",
        "Bounty": "悬赏通缉",
        "WeekDungeon": "特殊任务",
        "SchoolDungeon": "学园交流会",
        "Event": "活动",
        "Raid": "总力战",
        "TimeAttack": "综合战术考试",
        "WorldRaid": "联合作战",
        "ChaserA": "悬赏通缉 - 高架公路",
        "ChaserB": "悬赏通缉 - 沙漠铁路",
        "ChaserC": "悬赏通缉 - 教室",
        "Blood": "据点防御",
        "FindGift": "回收物品",
        "SchoolA": "学园交流会 - 三一",
        "SchoolB": "学园交流会 - 格黑娜",
        "SchoolC": "学园交流会 - 千年",
        "Conquest": "争夺战"
    },
    "TimeAttackStage": {
        "Shooting": "射击考试",
        "Defense": "防御考试",
        "Destruction": "突破考试"
    },
    "ConquestMap": {
        "815": "失落的天堂度假村群岛"
    },
    "StageTitle": {
        "ChaserA": "高架公路{0}",
        "ChaserB": "被遗弃的列车{0}",
        "ChaserC": "被袭击的教室{0}",
        "Blood": "废墟军需工厂{0}",
        "FindGift": "史林皮亚广场{0}",
        "SchoolA": "三一 {0}",
        "SchoolB": "格黑娜 {0}",
        "SchoolC": "千年 {0}"
    },
    "EnemyRank": {
        "Champion": "Boss",
        "Elite": "Elite",
        "Minion": "Minion",
        "Summoned": "Summon"
    },
    "NodeQuality": {
        "1": "常见",
        "2": "稀有"
    },
    "NodeTier": {
        "1": "第1次节点",
        "2": "第2次节点",
        "3": "第3次节点"
    },
    "WeaponPartExpBonus": {
        "WeaponExpGrowthA": "用于强化 SMG、SG、HG 类型武器时提供 1.5 倍经验",
        "WeaponExpGrowthB": "用于强化 AR、GL、RL 类型武器时提供 1.5 倍经验",
        "WeaponExpGrowthC": "用于强化 MG、SR、MT、RG 类型武器时提供 1.5 倍经验",
        "WeaponExpGrowthZ": "用于强化任何类型武器时提供 1.5 倍经验"
    },
    "BuffType": {
        "Buff": "增益效果",
        "Debuff": "減益效果",
        "CC": "群控效果",
        "Special": "状态效果"
    },
    "BuffName": {
        "Buff_AmmoCount": "载弹量",
        "Buff_ATK": "攻击力",
        "Buff_AttackSpeed": "攻速",
        "Buff_BlockRate": "掩护成功率",
        "Buff_ConcentratedTarget": "集中攻击",
        "Buff_CostChange": "EX 技能费用",
        "Buff_CostRegen": "COST回复力",
        "Buff_CriticalChance": "暴击值",
        "Buff_CriticalChanceResistPoint": "暴击抵抗力",
        "Buff_CriticalDamage": "暴击伤害",
        "Buff_CriticalDamageRateResist": "暴击伤害抵抗率",
        "Buff_DamagedLimit": "限制遭受的伤害",
        "Buff_DamagedRatio": "遭受伤害量",
        "Buff_DEF": "防御力",
        "Buff_Dodge": "回避率",
        "Buff_DotHeal": "持续恢复",
        "Buff_EnhanceExplosionRate": "爆发伤害加成",
        "Buff_EnhancePierceRate": "贯穿伤害加成",
        "Buff_EnhanceMysticRate": "神秘伤害加成",
        "Buff_ExtendBuffDuration": "Buff Duration",
        "Buff_ExtendDebuffDuration": "Debuff Duration",
        "Buff_ExtendCrowdControlDuration": "群控状态持续力",
        "Buff_HealByHit_Damaged": "击中回复",
        "Buff_HealEffectiveness": "所受恢复效果强化率",
        "Buff_HealPower": "治愈力",
        "Buff_HIT": "命中率",
        "Buff_MAXHP": "生命值",
        "Buff_MoveSpeed": "移速",
        "Buff_OppressionPower": "群控强化力",
        "Buff_OppressionResist": "群控抵抗力",
        "Buff_Penetration": "防御贯穿数值",
        "Buff_Range": "射程",
        "Buff_Shield": "护盾",
        "Buff_Stability": "稳定值",
        "Debuff_AmmoCount": "载弹量",
        "Debuff_ATK": "攻击力",
        "Debuff_AttackSpeed": "攻速",
        "Debuff_BlockRate": "掩护成功率",
        "Debuff_Burn": "烧伤",
        "Debuff_Cheerleading": "Cheer Fever",
        "Debuff_Chill": "恶寒",
        "Debuff_ConcentratedTarget": "集中攻击",
        "Debuff_CostChange": "EX 技能费用",
        "Debuff_CriticalChance": "暴击值",
        "Debuff_CriticalChanceResistPoint": "暴击抵抗力",
        "Debuff_CriticalDamage": "暴击伤害",
        "Debuff_CriticalDamageRateResist": "暴击伤害抵抗率",
        "Debuff_DamageByHit_Damaged": "弱点打击",
        "Debuff_DamagedRatio": "遭受的伤害量",
        "Debuff_DEF": "防御力",
        "Debuff_Dodge": "回避值",
        "Debuff_EnhanceExplosionRate": "爆发伤害",
        "Debuff_EnhancePierceRate": "贯穿伤害",
        "Debuff_EnhanceMysticRate": "神秘伤害",
        "Debuff_HealedLimit": "限制回复能力",
        "Debuff_HealEffectiveness": "所受回复效果强化率",
        "Debuff_HealPower": "治愈力",
        "Debuff_Hieronymus": "诅咒",
        "Debuff_HIT": "准确度",
        "Debuff_MAXHP": "生命值",
        "Debuff_MoveSpeed": "移速",
        "Debuff_OppressionPower": "群控强化力",
        "Debuff_OppressionResist": "群控抵抗力",
        "Debuff_Penetration": "防御贯穿值",
        "Debuff_Poison": "中毒",
        "Debuff_Range": "射程",
        "Debuff_Stability": "稳定值",
        "Debuff_CostRegen": "COST回复力",
        "CC_Fear": "恐惧",
        "CC_Stunned": "昏厥",
        "CC_Provoke": "挑衅",
        "CC_Paralysis": "瘫痪",
        "Special_EnergyBatteryHalf": "能量",
        "Special_FormChange": "普通攻击",
        "Special_Immortal": "不死",
        "Special_ImmuneDamage": "免伤",
        "Special_Fury": "愤怒",
        "Special_Misdeed": "恶行",
        "Special_LittleDevil": "小恶魔",
        "Special_Accumulation": "累积伤害",
        "Special_CostRegenBan": "COST停止回复",
        "Special_ImmuneCC": "群控免疫",
        "Special_SuddenDeath": "若藻的印记",
        "Special_Stamp": "Flower Stamp"
    },
    "BuffNameLong": {
        "Buff_AmmoCount": "载弹量提升",
        "Buff_ATK": "攻击力提升",
        "Buff_AttackSpeed": "攻速提升",
        "Buff_BlockRate": "掩护成功率提升",
        "Buff_ConcentratedTarget": "集中攻击",
        "Buff_CostChange": "EX 技能费用降低",
        "Buff_CostRegen": "COST回复力提升",
        "Buff_CriticalChance": "暴击值提升",
        "Buff_CriticalChanceResistPoint": "暴击抵抗力提升",
        "Buff_CriticalDamage": "暴击伤害提升",
        "Buff_CriticalDamageRateResist": "暴击伤害抵抗率提升",
        "Buff_DamagedLimit": "限制遭受的伤害",
        "Buff_DamagedRatio": "遭受伤害量降低",
        "Buff_DEF": "防御力提升",
        "Buff_Dodge": "回避值提升",
        "Buff_DotHeal": "持续恢复",
        "Buff_EnhanceExplosionRate": "爆发伤害加成提升",
        "Buff_EnhancePierceRate": "贯穿伤害加成提升",
        "Buff_EnhanceMysticRate": "神秘伤害加成提升",
        "Buff_ExtendBuffDuration": "Buff Duration Up",
        "Buff_ExtendDebuffDuration": "Debuff Duration Up",
        "Buff_ExtendCrowdControlDuration": "CC Duration Up",
        "Buff_HealByHit_Damaged": "击中回复",
        "Buff_HealEffectiveness": "所受恢复效果强化率提升",
        "Buff_HealPower": "治愈力提升",
        "Buff_HIT": "命中率提升",
        "Buff_MAXHP": "生命值提升",
        "Buff_MoveSpeed": "移速提升",
        "Buff_OppressionPower": "群控强化力提升",
        "Buff_OppressionResist": "群控抵抗力提升",
        "Buff_Penetration": "防御贯穿数值提升",
        "Buff_Range": "射程增加",
        "Buff_Shield": "护盾",
        "Buff_Stability": "稳定值提升",
        "Debuff_AmmoCount": "载弹量减少",
        "Debuff_ATK": "攻击力下降",
        "Debuff_AttackSpeed": "攻速下降",
        "Debuff_BlockRate": "掩护成功率下降",
        "Debuff_Burn": "烧伤",
        "Debuff_Cheerleading": "Cheerleading Fever",
        "Debuff_Chill": "恶寒",
        "Debuff_ConcentratedTarget": "集中攻击",
        "Debuff_CostChange": "EX 技能费用增加",
        "Debuff_CriticalChance": "暴击值下降",
        "Debuff_CriticalChanceResistPoint": "暴击抵抗力下降",
        "Debuff_CriticalDamage": "暴击伤害下降",
        "Debuff_CriticalDamageRateResist": "暴击伤害抵抗率下降",
        "Debuff_DamageByHit_Damaged": "弱点打击",
        "Debuff_DamagedRatio": "遭受的伤害量增加",
        "Debuff_DEF": "防御力下降",
        "Debuff_Dodge": "回避值下降",
        "Debuff_EnhanceExplosionRate": "爆发伤害下降",
        "Debuff_EnhancePierceRate": "贯穿伤害下降",
        "Debuff_EnhanceMysticRate": "神秘伤害下降",
        "Debuff_HealedLimit": "限制回复能力",
        "Debuff_HealEffectiveness": "所受回复效果强化率下降",
        "Debuff_HealPower": "治愈力下降",
        "Debuff_Hieronymus": "诅咒",
        "Debuff_HIT": "准确度下降",
        "Debuff_MAXHP": "生命值下降",
        "Debuff_MoveSpeed": "移动速度下降",
        "Debuff_OppressionPower": "群控强化力下降",
        "Debuff_OppressionResist": "群控抵抗力下降",
        "Debuff_Penetration": "防御贯穿值下降",
        "Debuff_Poison": "中毒",
        "Debuff_Range": "射程下降",
        "Debuff_Stability": "稳定值下降",
        "Debuff_CostRegen": "COST回复力下降",
        "CC_Fear": "恐惧",
        "CC_Stunned": "昏厥",
        "CC_Provoke": "挑衅",
        "CC_Paralysis": "瘫痪",
        "Special_EnergyBatteryHalf": "能量",
        "Special_FormChange": "普通攻击",
        "Special_Immortal": "不死",
        "Special_ImmuneDamage": "免伤",
        "Special_Fury": "愤怒",
        "Special_Misdeed": "恶行",
        "Special_LittleDevil": "小恶魔",
        "Special_Accumulation": "累积伤害",
        "Special_CostRegenBan": "COST停止回复",
        "Special_ImmuneCC": "群控免疫",
        "Special_SuddenDeath": "若藻的印记",
        "Special_Stamp": "Flower Stamps"
    },
    "BuffTooltip": {
        "Buff_AmmoCount": "提升普通攻击武器载弹量",
        "Buff_ATK": "提升攻击造成的伤害",
        "Buff_AttackSpeed": "提升普通攻击与换弹速度，同时降低攻击延迟",
        "Buff_BlockRate": "提升掩蔽时阻挡攻击概率",
        "Buff_ConcentratedTarget": "成为敌方优先攻击的目标",
        "Buff_CostChange": "降低使用EX技能所需技能COST",
        "Buff_CostRegen": "提升技能COST回复速率",
        "Buff_CriticalChance": "Increases the chance of landing a critical hit when attacking.",
        "Buff_CriticalChanceResistPoint": "Decerases the chance of receiving a critical hit when being attacked.",
        "Buff_CriticalDamage": "提升暴击造成的伤害",
        "Buff_CriticalDamageRateResist": "减少受到的暴击伤害",
        "Buff_DamagedLimit": "Limits the amount of damage received from attacks.",
        "Buff_DamagedRatio": "以一定百分比减少受到的全部伤害",
        "Buff_DEF": "减少受到的伤害",
        "Buff_Dodge": "躲避攻击几率提升",
        "Buff_DotHeal": "以一定时间间隔持续回复生命值",
        "Buff_EnhanceExplosionRate": "Increases the damage bonus when dealing Explosive type attacks against Light Armor targets.",
        "Buff_EnhancePierceRate": "Increases the damage bonus when dealing Piercing type attacks against Heavy Armor targets.",
        "Buff_EnhanceMysticRate": "Increases the damage bonus when dealing Mystic type attacks against Special Armor targets.",
        "Buff_ExtendBuffDuration": "Increases the duration of buffs granted to self and allies.",
        "Buff_ExtendDebuffDuration": "Increases the duration of debuffs inflicted on enemies.",
        "Buff_ExtendCrowdControlDuration": "Increases the duration of Crowd Control effects inflicted on enemies.",
        "Buff_HealByHit_Damaged": "Restores HP each time damage is taken from an attack.",
        "Buff_HealEffectiveness": "Increases the amount of HP restored from healing abilities that target this character.",
        "Buff_HealPower": "Increases the amount of HP restored by healing abilities, and damage absorbed by barrier abilities.",
        "Buff_HIT": "Decreases the chance of missing when attacking.",
        "Buff_MAXHP": "生命值提升",
        "Buff_MoveSpeed": "移动速度提升",
        "Buff_OppressionPower": "Increases the chance of successfully inflicting Crowd Control effects.",
        "Buff_OppressionResist": "Decreases the chance of being inflicting with Crowd Control effects.",
        "Buff_Penetration": "Increases the amount of enemy defense that will be ignored by attacks.",
        "Buff_Range": "Increases the distance from which Normal Attacks can be performed.",
        "Buff_Shield": "吸收一定量伤害",
        "Buff_Stability": "Increases the minimum damage dealt by attacks due to random damage variance.",
        "Debuff_AmmoCount": "Decreases the maximum amount of weapon ammunition used by Normal Attacks.",
        "Debuff_ATK": "Decreases the amount of damage dealt by attacks.",
        "Debuff_AttackSpeed": "Decreases the speed of Normal Attacks and reloads, and increases attack delay.",
        "Debuff_BlockRate": "Decreases the chance of successfully blocking attacks when taking cover.",
        "Debuff_Burn": "Continuously receives Burn damage at set intervals. This damage cannot critically hit.",
        "Debuff_Cheerleading": "Continuously receives damage at set intervals. This damage cannot critically hit.",
        "Debuff_Chill": "Continuously receives Chill damage at set intervals. This damage cannot critically hit.",
        "Debuff_ConcentratedTarget": "Becomes the priority target of enemies' attacks.",
        "Debuff_CostChange": "Increases the amount of skill cost required for using the EX Skill.",
        "Debuff_CostRegen": "Decreases the rate at which skill cost is recovered.",
        "Debuff_CriticalChance": "Decreases the chance of landing a critical hit when attacking.",
        "Debuff_CriticalChanceResistPoint": "Increases the chance of receiving a critical hit when being attacked.",
        "Debuff_CriticalDamage": "Decreases the damage dealt by critical hits.",
        "Debuff_CriticalDamageRateResist": "Increases the damage received from critical hits.",
        "Debuff_DamageByHit_Damaged": "Receives additional damage when being attacked.",
        "Debuff_DamagedRatio": "Increases all incoming damage by a percentage amount.",
        "Debuff_DEF": "Increases the damage received from attacks.",
        "Debuff_Dodge": "Decreases the chance of successfully evading attacks.",
        "Debuff_EnhanceExplosionRate": "Decreases the damage bonus when dealing Explosive type attacks against Light Armor targets.",
        "Debuff_EnhancePierceRate": "Decreases the damage bonus when dealing Piercing type attacks against Heavy Armor targets.",
        "Debuff_EnhanceMysticRate": "Decreases the damage bonus when dealing Mystic type attacks against Special Armor targets.",
        "Debuff_HealedLimit": "Limits the amount of HP healing abilities will restore.",
        "Debuff_HealEffectiveness": "Decreases the amount of HP restored from healing abilities that target this character.",
        "Debuff_HealPower": "Decreases the amount of HP restored by healing abilities, and damage absorbed by barrier abilities.",
        "Debuff_Hieronymus": "Inflicts continuous damage over time. Inflicts a large amount of damage in a circular area around the target if this debuff is not removed before it expires. This debuff can only be removed by healing the afflicted to 100% HP.",
        "Debuff_HIT": "Increases the chance of missing when attacking.",
        "Debuff_MAXHP": "生命值下降",
        "Debuff_MoveSpeed": "移动速度下降",
        "Debuff_OppressionPower": "Decreases the chance of successfully inflicting Crowd Control effects.",
        "Debuff_OppressionResist": "Increases the chance of being inflicting with Crowd Control effects.",
        "Debuff_Penetration": "Decreases the amount of enemy defense that will be ignored by attacks.",
        "Debuff_Poison": "Continuously receives poison damage at set intervals. This damage cannot critically hit.",
        "Debuff_Range": "Decreases the distance from which Normal Attacks can be performed.",
        "Debuff_Stability": "Decreases the minimum damage dealt by attacks due to random damage variance.",
        "CC_Fear": "Unable to act and will slowly move away from whoever inflicted fear on them. Also interrupts any active skills.",
        "CC_Stunned": "无法行动并打断任何主动技能。",
        "CC_Provoke": "Forced to attack whoever inflicted taunt on them. Also interrupts any active skills.",
        "CC_Paralysis": "无法行动并打断任何主动技能。",
        "Special_EnergyBatteryHalf": "Increases the effectiveness of Aris's EX and Sub skills by 1.5&times; (half) or 2&times; (full).\nCharge level resets to empty after EX skill use.",
        "Special_FormChange": "增强普通攻击力。",
        "Special_Immortal": "Able to survive lethal damage with 1 HP for the duration of the effect.",
        "Special_ImmuneDamage": "免疫所有伤害",
        "Special_Fury": "尼禄EX技能造成的伤害提升",
        "Special_Misdeed": "Decreases DEF with each stack held and generates skill cost when Aru (New Year) uses her EX Skill.",
        "Special_LittleDevil": "Increases Crit DMG with each stack held and increases the damage dealt by Mutuski (New Year)'s Basic Skill when at 6 stacks.",
        "Special_Accumulation": "效果持续期间对该目标造成的所有伤害将被累积，并在效果过期后作为额外打击再次造成伤害。",
        "Special_CostRegenBan": "COST回复力降低为0",
        "Special_ImmuneCC": "免疫所有群控效果",
        "Special_SuddenDeath": "5层叠加将对人物造成致命伤害。",
        "Special_Stamp": "当心奈进行5次攻击时降低队伍中其他学生的EX技能费用并恢复自身生命值。"
    },
    "ServerName": {
        "0": "日服",
        "1": "国际服"
    },
    "ShopCategory": {
        "General": "一般",
        "Raid": "总力战",
        "SecretStone": "神明文字碎片I",
        "SecretStoneGrowth": "神明文字碎片II",
        "Arena": "战术大赛",
        "TimeAttack": "综合战术考试",
        "MasterCoin": "精通证书",
        "Chaser": "Bounty Shop"
    },
    "ui": {
        "navbar_home": "首页",
        "navbar_students": "学生",
        "student": "学生",
        "navbar_stages": "关卡",
        "navbar_raids": "总力战",
        "navbar_craft": "制造",
        "synthesis": "制造物质",
        "fusion": "合成物质",
        "shops": "商店",
        "item_sources": "獲得場所",
        "navbar_items": "道具",
        "navbar_settings_server": "服务器",
        "navbar_settings_language": "语言",
        "navbar_settings_language_description": "内容翻译完成度基于所选择的服务器。",
        "navbar_settings_theme": "主题",
        "navbar_settings_theme_description": "选择 Auto 跟随系统主题。",
        "navbar_settings_contrast": "高对比度",
        "navbar_settings_contrast_description": "禁用模糊和透明效果。<br>可能提升性能。",
        "navbar_settings_collection": "管理集合数据",
        "navbar_settings_collection_description": "导入或导出你的学生集数据。",
        "navbar_settings_custombuffs": "启用自定义增益效果",
        "navbar_settings_custombuffs_description": "(实验性)允许在学生的数据预览选项页面设置自定义增益效果。",
        "search": "搜索",
        "filter_by_name": "按名称筛选",
        "collection_export_collection": "导出集合",
        "collection_import_collection": "导入集合",
        "collection_import_warning": "这会覆盖你的当前集合",
        "collection_export_placeholder": "点击导出以生成集合的导出字符串",
        "collection_import_placeholder": "将导出字符串粘贴于此处并点击导入",
        "collection_export": "导出",
        "collection_import": "导入",
        "collection_import_planner": "从 Resource Planner 导入",
        "setting_off": "关",
        "setting_on": "开",
        "setting_open": "打开",
        "current_events": "当前活动 ({0})",
        "home_timezone": "所有日期已转换为本地时区。",
        "event_starts": "<b>{0}天{1}小时{2}分钟</b>后开始",
        "event_ends": "<b>{0}天{1}小时{2}分钟</b>后结束",
        "student_birthdays": "以下学生在本周迎来生日。",
        "attributes": "属性信息",
        "skills": "技能",
        "ex_weapon": "固有武器",
        "ex_gear": "爱用品",
        "profile": "资料",
        "student_gear_short": "装备",
        "student_bond_short": "羁绊等级",
        "student_weapon": "固有武器",
        "student_gear": "装备",
        "student_ex_gear": "爱用品",
        "student_bond": "羁绊等级",
        "student_bond_alt": "羁绊等级",
        "tooltip_supportstats": "辅助能力值",
        "tooltip_vehiclestats": "车辆/召唤物数据",
        "tooltip_import_planner": "从 Justin163's Resource Planner (justin163.com/planner) 导入集合",
        "student_skill_ex": "EX技能",
        "add_own": "添加自有的/选择的特殊学生",
        "buff_transferable": "其它增益效果",
        "buff_transferable_search": "搜索学生或技能名称",
        "buff_transferable_conflict": "部分已选择的增益效果之间有冲突，将仅应用第一个效果。",
        "buff_transferable_incompatible": "部分已选择的增益效果无法被应用于当前学生。",
        "buff_custom": "自定义增益效果",
        "buff_custom_base": "作为基准值添加",
        "buff_custom_coefficient": "作为百分比值添加",
        "supportstats_search": "搜索特殊学生",
        "student_skill_normal": "普通技能",
        "student_skill_gearnormal": "普通技能+",
        "student_skill_passive": "被动技能",
        "student_skill_sub": "辅助技能",
        "student_skills_materials": "技能材料",
        "student_skills_materials_none": "无需成长材料。",
        "student_weapon_rank_2star_desc": "固有武器最大等级 Lv.30 → <b>Lv.40</b> / 解锁强化技能+",
        "student_weapon_rank_3star_desc": "固有武器最大等級 Lv.40 → <b>Lv.50</b> / 地形战力强化",
        "student_gear_t2_desc": "解锁基本技能+",
        "attack_type_desc": "对{0}目标造成<b>2倍</b>伤害。<br>对{1}目标造成<b>0.5倍</b>伤害。<br>对<b class='ba-col-siege'>构造物</b>造成<b>0.5倍</b>伤害。",
        "attack_type_normal_desc": "对<b class='ba-col-explosion'>轻装甲</b>、<b class='ba-col-pierce'>重装甲</b>与<b class='ba-col-mystic'>神秘装甲</b>目标造成<b>1倍</b>伤害。<br>对<b class='ba-col-siege'>构造物</b>造成<b>0.5倍</b>伤害。",
        "defense_type_desc": "承受<b>2倍</b>{0}攻击伤害。<br>承受<b>0.5倍</b>{1}攻击伤害。",
        "defense_type_normal_desc": "承受<b>1倍</b><b class='ba-col-explosion'>爆发</b>、<b class='ba-col-pierce'>贯穿</b>与<b class='ba-col-mystic'>神秘</b>攻击伤害。",
        "comfort": "舒适度",
        "age": "年龄",
        "birthday": "生日",
        "hobbies": "爱好",
        "height": "身高",
        "cv": "CV",
        "designer": "设计",
        "illustrator": "原画",
        "bond_title": "羁绊等级奖励",
        "weaponbonus_title": "极限解放",
        "favoritem_title": "喜欢的礼物",
        "favoritem_none": "此学生没有任何喜欢的礼物。",
        "furniture_title": "家具互动",
        "furniture_none": "此学生不与任何咖啡厅家具互动。",
        "student_list": "学生名单",
        "filters": "过滤器",
        "student_search_filters_clear": "清空过滤器",
        "student_search_info": "显示所有信息",
        "sortby": "排序",
        "default": "基本值",
        "stat": "属性值",
        "name": "名称",
        "type": "战术作用",
        "role": "作用类别",
        "rarity": "稀有度",
        "attacktype": "攻击类型",
        "defensetype": "防御类型",
        "school": "学园",
        "weapon": "武器种类",
        "position": "站位",
        "category": "類別",
        "combat_power": "战斗力",
        "memory_lobby": "纪念大厅",
        "memory_lobby_student": "{0}的纪念大厅",
        "memory_lobby_unlock": "{1}羁绊等级达到{0}后解锁",
        "terrain_adaption": "{0}战斗力",
        "terrain_adaption_details": "在<b>{1}</b>地形造成<b>{0}倍</b>伤害。\n寻找掩体时掩护成功率<b>+{2}%</b>。\n攻击时绕过掩体概率<b>增加{2}%</b>。",
        "statpreview_title": "数据预览选项",
        "buffs": "增益效果",
        "summon": "召唤",
        "summon_inheritance": "继承{1}{0}的{2}",
        "stability_mindamage": "最低伤害：{0}",
        "stat_info": "属性资讯",
        "rec_level": "推荐",
        "stage_rewards": "可获得奖励",
        "rewards_none": "没有报酬",
        "rewards_findgift_msg": "每个击败的敌人会掉落以下物品中的一项：",
        "stage_enemies": "敌方信息",
        "stage_info": "信息",
        "stage_map": "地图",
        "event_rerun": "(复刻)",
        "starcondition_clear": "完成",
        "starcondition_cleartime": "{0}秒内完成",
        "starcondition_earnrewards": "获得奖励{0}个",
        "starcondition_defeatall": "击败所有敌人。",
        "starcondition_defeatalltime": "{0}秒内击败所有敌人。",
        "starcondition_allsurvive": "全员生存。",
        "starcondition_complete": "任务完成",
        "starcondition_clearturns": "{0}回合内完成关卡",
        "starcondition_sranks": "获得S等级{0}次",
        "no_results": "无结果。",
        "furniture_set": "组合",
        "others": "其它",
        "options": "选项",
        "options_short": "选项",
        "raid_rules": "规则",
        "ta_phase": "阶段",
        "craft_rewards": "可能道具",
        "craft_fusion": "合成物质",
        "craft_recipe_items": "必要道具",
        "craft_using": "使用以下道具制造",
        "craft_toggle_chance": "切换节点出现概率",
        "bond_req_equip": "需要 {1} 羁绊等级 <i class='ms-1 fa-solid fa-heart'></i> {0} 以装备",
        "bond_req_upgrade": "需要 {1} 羁绊等级 <i class='ms-1 fa-solid fa-heart'></i> {0} 以升级",
        "gacha_pickup": "特选招募",
        "skill_plus": "+",
        "stage_reward_default": "奖励",
        "stage_reward_firstclear": "首次",
        "stage_reward_threestar": "3★",
        "rewards_season": "赛季奖励",
        "raid_season": "赛季{0}({1})",
        "raid_season_select": "选择赛季",
        "item_tab_materials": "材料",
        "item_tab_gifts": "礼物",
        "item_tab_eleph": "神名文字",
        "item_tab_currency": "货币",
        "item_tab_furniture": "家具",
        "item_tab_equipment": "装备",
        "list_style_detailed": "详细视图",
        "list_style_compact": "紧凑视图",
        "equipment_tier": "装备级数",
        "furniture_interaction_list": "以下学生与此家具互动",
        "item_likedbystudent_list_0": "被以下学生喜爱 {0}",
        "item_likedbystudent_list_1": "被以下学生喜欢 {0}",
        "item_usedby_gear": "用于强化以下学生的爱用品",
        "item_specialgift": "此礼物在赠送给任何学生时会被当做喜欢的项目{0}看待",
        "item_usedby": "被以下学生使用",
        "item_usedby_skill": "用于增强以下学生的技能",
        "item_usedby_eleph": "用于解锁以下学生",
        "item_obtainedfrom_stage": "从以下场景获得",
        "item_purchasedfrom": "从以下商店购买",
        "item_randombox_tier": "随机 {0} {1}",
        "item_artifact_box": "包含以下欧帕兹之一：",
        "item_equipment_box": "包含以下装备碎片之一：",
        "conquest_area": "区域{0}",
        "tooltip_relationship_bonus": "切换羁绊等级加成",
        "tooltip_relationship_bonus_alt": "切换另一羁绊等级加成",
        "tooltip_equipment_bonus": "切换装备加成",
        "tooltip_passiveskill_bonus": "切换增强技能加成",
        "tooltip_buffs_bonus": "包含{0}选择的增益效果",
        "tooltip_compare": "对比学生",
        "tooltip_compare_remove": "移除对比",
        "tooltip_collection_add": "添加到集合",
        "tooltip_collection_remove": "从集合中移除",
        "tooltip_sprite_toggle": "切换立绘",
        "collection": "集合",
        "collection_owned": "已拥有",
        "collection_notowned": "未拥有",
        "maptile_spawn": "生成方格",
        "maptile_drone": "无人机（照亮周遭视野）",
        "maptile_remove": "移除方格",
        "maptile_teleport_oneway_entrance": "单向传送门入口",
        "maptile_teleport_oneway_exit": "单向传送门出口",
        "maptile_teleport_twoway": "双向传送门",
        "maptile_item_food": "食物拾取\n(恢复学生 50% 生命值)",
        "maptile_item_atk": "武器拾取\n(两回合内学生攻击力增加 10%)",
        "maptile_item_def": "护甲拾取\n(两回合内学生防御力增加 10%)",
        "maptile_switch_down": "降低的交换方格",
        "maptile_switch_up": "升高的交换方格",
        "maptile_switch_target_down": "降低的方格",
        "maptile_switch_target_up": "升高的方格",
        "maptile_enemy_default_msg": "单击地图上的敌方单位以预览敌人列表。",
        "toast_import_success": "导入学生集成功",
        "toast_import_failure": "导入学生集时出错",
        "toast_import_copy": "已复制导入字符串到剪贴板",
        "toast_amount_invalid": "输入的数值无效",
        "stat_defense_tooltip": "受到伤害降低：{0}",
        "stat_crit_tooltip": "暴击几率：",
        "stat_crit_amount_tooltip": "{0}&nbsp;<small><i>(对于一个暴击抵抗力{1}的敌人)</i></small>",
        "stat_stability_tooltip": "最低伤害：{0}",
        "stat_ammocount_tooltip": "普通攻击消耗{0}弹药并造成{1}次打击",
        "stat_ammocount_tooltip_area": "普通攻击消耗{0}弹药并对圆形范围内敌军造成{1}次打击",
        "stat_ammocount_tooltip_line": "普通攻击消耗{0}弹药并对直线上敌军造成{1}次打击",
        "skill_hits_tooltip": "共造成{0}次打击",
        "home_welcome": "欢迎，老师！",
        "home_introduction": "Schale DB 是由 Nexon Games 开发，悠星（日服）和Nexon（国际服）运营的手游<i class=\"text-bold\">蔚蓝档案</i>的非官方数据库。",
        "home_change_server": "请使用设置菜单 <i class=\"fa-solid fa-gear mx-1\"></i> 选择日服/国际服以显示对应服务器的内容。",
        "home_features": "特性",
        "home_translations_help": "Schale DB 目前支持6种语言。如果想帮助翻译请通过Discord (lonqie#2708)联系或查看<a class=\"text-emphasis\" href=\"https://github.com/lonqie/SchaleDB-Localization\">本地化项目</a>！",
        "home_features_list": "<li>有关全体学生和技能，包含召唤单位与载具单位的完整信息。</li><li>全面的数据计算，可以显示学生在任何星级、等级、装备和技能的增益效果下的面板数据。</li><li>完整的物品、装备和家具数据库。</li><li>所有关卡的奖励掉落、地图和详细的敌人信息。</li><li>总力战BOSS与综合战术考试的数据与技能信息。</li><li>查看从合成节点可能获取物品的几率。</li>",
        "home_footer_text": "Schale DB 由 lonqie 开发与维护，Blue-Roar 与 TKRotund 提供额外翻译。\nSchale DB 与悠星、Nexon、Nexon Games 没有关联。本数据库中使用的所有游戏作品、信息和素材均为各自作者的财产和版权。",
        "changelog": "更新日志"
    }
}